Abdulla al noman id - 1421698642 : Android,project view
Akhlaqur rahman id - 1420077042 : Android,style   
Md. Mesbahul Islam id - 1420026042 : Effects,app.js,config.js
Porsia Tithi id - 1420674042 : Style, effects_cam edited